[gd_scene load_steps=2 format=2]

[ext_resource path="res://objects/sockets.gd" type="Script" id=1]

[node name="sockets" type="Node2D"]
script = ExtResource( 1 )

[node name="Label" type="Label" parent="."]
margin_right = 40.0
margin_bottom = 14.0
__meta__ = {
"_edit_use_anchors_": false
}
